{
  "$schema": "https://docs.renovatebot.com/renovate-schema.json",
  "extends": [
    "config:recommended",
    "docker:enableMajor",
    ":enablePreCommit"
  ],
  "prHourlyLimit": 0,
  "labels": [
    "dependencies"
  ],
  "packageRules": [
    {
      "matchDepTypes": [
        "optionalDependencies"
      ],
      "addLabels": [
        "optional"
      ]
    },
    {
      "matchPackagePatterns": [
        "msclock/gitlab-ci-templates"
      ],
      "matchUpdateTypes": [
        "major",
        "minor",
        "patch",
        "pin",
        "digest"
      ],
      "semanticCommitType": "perf"
    }
  ],
  "regexManagers": [
    {
      "description": "Update https template URL for .gitlab-ci.yml from a GitLab project release",
      "fileMatch": [
        "\\.gitlab-ci\\.yml$"
      ],
      "matchStrings": [
        "\\s+- remote: [\"']*?https:\\/\\/gitlab.com\\/(?<depName>.*?)\\/-\\/raw\\/(?<currentValue>.*?)\\/\\w+"
      ],
      "datasourceTemplate": "gitlab-releases"
    }
  ],
  "timezone": "Asia/Shanghai"
}
